<svg width="60" height="60" viewBox="0 0 60 60" fill="none" xmlns="http://www.w3.org/2000/svg">
<path d="M55.1614 8.22583H4.83879C3.76992 8.22583 2.90332 9.09231 2.90332 10.1613V47.9033H57.0969V10.1613C57.0969 9.09231 56.2303 8.22583 55.1614 8.22583Z" fill="#707487"/>
<path d="M52.2579 43.0644H7.7419C7.20741 43.0644 6.77417 42.6312 6.77417 42.0967V13.0644C6.77417 12.5299 7.20741 12.0967 7.7419 12.0967H52.258C52.7925 12.0967 53.2258 12.5299 53.2258 13.0644V42.0967C53.2258 42.6312 52.7924 43.0644 52.2579 43.0644Z" fill="#FFDC64"/>
<path d="M7.74178 43.0645H33.8708V37.2581H6.77393V42.0967C6.77393 42.6312 7.20729 43.0645 7.74178 43.0645Z" fill="#F0C087"/>
<path d="M33.8708 27.5805H53.2257V13.0644C53.2257 12.5299 52.7924 12.0967 52.2579 12.0967H33.8708V27.5805Z" fill="#65E3AE"/>
<path d="M33.8708 27.5806H53.2257V42.0967C53.2257 42.6312 52.7924 43.0644 52.2579 43.0644H33.8708V27.5806Z" fill="#6E7AE0"/>
<path d="M59.0323 46.9353H0.967734C0.433242 46.9353 0 47.3685 0 47.903V49.8385C0 50.9074 0.866602 51.774 1.93547 51.774H58.0645C59.1334 51.774 60 50.9074 60 49.8385V47.903C60 47.3685 59.5668 46.9353 59.0323 46.9353Z" fill="#C7CFE2"/>
<path d="M60 48.8708H0V47.903C0 47.3685 0.433242 46.9353 0.967734 46.9353H59.0323C59.5668 46.9353 60 47.3685 60 47.903V48.8708V48.8708Z" fill="#D5DCED"/>
<path d="M32.8349 49.8386H27.1646C26.5175 49.8386 25.9132 49.5152 25.5543 48.9767L24.1934 46.9353H35.8063L34.4454 48.9767C34.0863 49.5152 33.482 49.8386 32.8349 49.8386Z" fill="#AFB9D2"/>
<path d="M41.6127 23.7097L40.0329 24.2364C39.2426 24.4998 38.7095 25.2395 38.7095 26.0726V27.5808H48.3869V26.0726C48.3869 25.2395 47.8538 24.4998 47.0635 24.2364L45.4837 23.7097H41.6127Z" fill="#959CB5"/>
<path d="M43.5483 25.6451C42.4793 25.6451 41.6128 24.7785 41.6128 23.7096V20.8064H45.4837V23.7096C45.4837 24.7785 44.6172 25.6451 43.5483 25.6451Z" fill="#D29B6E"/>
<path d="M43.5485 22.7419C41.9451 22.7419 40.6453 21.4421 40.6453 19.8387V17.9032C40.6453 16.8343 41.5119 15.9678 42.5807 15.9678H44.5162C45.5852 15.9678 46.4517 16.8344 46.4517 17.9032V19.8387C46.4517 21.4421 45.1518 22.7419 43.5485 22.7419Z" fill="#F0C087"/>
<path d="M42.5807 19.8387V17.9032C42.5807 16.8343 43.4473 15.9678 44.5162 15.9678H42.5807C41.5119 15.9678 40.6453 16.8343 40.6453 17.9032V19.8387C40.6453 21.4421 41.9451 22.7419 43.5485 22.7419C43.8896 22.7419 44.2121 22.6722 44.5162 22.5641C43.3912 22.1643 42.5807 21.1009 42.5807 19.8387Z" fill="#E6AF78"/>
<path d="M44.5162 15.9678H42.5807C41.5119 15.9678 40.6453 16.8343 40.6453 17.9032C40.6453 17.9032 43.0762 18.7103 46.4517 18.8488V17.9032C46.4517 16.8343 45.5851 15.9678 44.5162 15.9678Z" fill="#694B4B"/>
<path d="M42.5807 17.9032C42.5807 16.8343 43.4473 15.9678 44.5162 15.9678H42.5807C41.5119 15.9678 40.6453 16.8343 40.6453 17.9032C40.6453 17.9032 41.3736 18.1438 42.5807 18.3848V17.9032Z" fill="#5A4146"/>
<path d="M41.6127 39.1936L40.0329 39.7202C39.2426 39.9837 38.7095 40.7234 38.7095 41.5565V43.0647H48.3869V41.5565C48.3869 40.7234 47.8538 39.9837 47.0635 39.7202L45.4837 39.1936H41.6127Z" fill="#FFDC64"/>
<path d="M43.5483 41.1292C42.4793 41.1292 41.6128 40.2626 41.6128 39.1937V36.2905H45.4837V39.1937C45.4837 40.2626 44.6172 41.1292 43.5483 41.1292Z" fill="#D29B6E"/>
<path d="M43.5485 38.2258C41.9451 38.2258 40.6453 36.926 40.6453 35.3226V33.3871C40.6453 32.3181 41.5119 31.4517 42.5807 31.4517H44.5162C45.5852 31.4517 46.4517 32.3183 46.4517 33.3871V35.3226C46.4517 36.926 45.1518 38.2258 43.5485 38.2258Z" fill="#F0C087"/>
<path d="M42.5807 35.3226V33.3871C42.5807 32.3181 43.4473 31.4517 44.5162 31.4517H42.5807C41.5119 31.4517 40.6453 32.3181 40.6453 33.3871V35.3226C40.6453 36.926 41.9451 38.2258 43.5485 38.2258C43.8896 38.2258 44.2121 38.1561 44.5162 38.048C43.3912 37.6482 42.5807 36.5849 42.5807 35.3226Z" fill="#E6AF78"/>
<path d="M44.5162 31.4517H42.5807C41.5119 31.4517 40.6453 32.3181 40.6453 33.3871C40.6453 33.3871 43.0762 34.1942 46.4517 34.3327V33.3871C46.4517 32.3181 45.5851 31.4517 44.5162 31.4517Z" fill="#694B4B"/>
<path d="M42.5807 33.3871C42.5807 32.3181 43.4473 31.4517 44.5162 31.4517H42.5807C41.5119 31.4517 40.6453 32.3181 40.6453 33.3871C40.6453 33.3871 41.3736 33.6277 42.5807 33.8687V33.3871Z" fill="#5A4146"/>
<path d="M25.0591 28.6116L22.7929 27.4785C22.4651 27.3146 22.258 26.9795 22.258 26.613V24.6775H18.3871V26.613C18.3871 26.9795 18.18 27.3147 17.8521 27.4785L15.5859 28.6116C14.9303 28.9395 14.5161 29.6096 14.5161 30.3427V38.2258C14.5161 38.7603 14.9494 39.1935 15.4838 39.1935H25.1613C25.6958 39.1935 26.129 38.7603 26.129 38.2258V30.3427C26.129 29.6097 25.7148 28.9395 25.0591 28.6116Z" fill="#E6AF78"/>
<path d="M18.3869 24.6775V26.613C18.3869 26.8194 18.3157 27.0117 18.1997 27.1734C18.8581 27.4332 19.5728 27.5807 20.3223 27.5807C21.072 27.5807 21.7866 27.4332 22.4449 27.1734C22.329 27.0117 22.2578 26.8194 22.2578 26.613V24.6775H18.3869Z" fill="#D29B6E"/>
<path d="M25.059 28.6114L23.2938 27.7288C22.5838 28.5875 21.5238 29.1464 20.3224 29.1464C19.121 29.1464 18.061 28.5875 17.351 27.7288L15.5858 28.6114C14.9301 28.9393 14.5159 29.6095 14.5159 30.3425V38.2256C14.5159 38.76 14.9491 39.1933 15.4836 39.1933H25.1611C25.6956 39.1933 26.1288 38.76 26.1288 38.2256V30.3425C26.1289 29.6095 25.7147 28.9393 25.059 28.6114Z" fill="#FF507D"/>
<path d="M20.3224 25.645C18.1845 25.645 16.4514 23.9119 16.4514 21.7741V19.8385C16.4514 18.2351 17.7513 16.9353 19.3546 16.9353H21.2901C22.8934 16.9353 24.1933 18.2351 24.1933 19.8385V21.774C24.1934 23.9119 22.4603 25.645 20.3224 25.645Z" fill="#F0C087"/>
<path d="M19.3546 21.774V19.8385C19.3546 18.4008 20.4022 17.2155 21.774 16.9841C21.6158 16.9573 21.4558 16.9353 21.2901 16.9353H19.3546C17.7513 16.9353 16.4514 18.2351 16.4514 19.8385V21.774C16.4514 23.9118 18.1845 25.6449 20.3224 25.6449C20.8366 25.6449 21.325 25.5399 21.774 25.3578C20.3566 24.7831 19.3546 23.3977 19.3546 21.774Z" fill="#E6AF78"/>
<path d="M16.4514 19.8385C16.4514 19.8385 19.3546 20.8062 24.1933 20.8062V19.8385C24.1933 18.2351 22.8934 16.9353 21.2901 16.9353H19.3546C17.7513 16.9353 16.4514 18.2351 16.4514 19.8385Z" fill="#694B4B"/>
<path d="M19.3546 19.8385C19.3546 18.4008 20.4022 17.2155 21.774 16.9841C21.6158 16.9573 21.4558 16.9353 21.2901 16.9353H19.3546C17.7513 16.9353 16.4514 18.2351 16.4514 19.8385C16.4514 19.8385 17.4923 20.1827 19.3546 20.4605V19.8385V19.8385Z" fill="#5A4146"/>
<path d="M17.4193 36.2902V32.4192C17.4193 31.81 17.1324 31.2363 16.6451 30.8707L14.75 29.4495C14.6071 29.7218 14.5161 30.0231 14.5161 30.3424V38.2256C14.5161 38.7601 14.9494 39.1934 15.4838 39.1934H19.3548V37.2579H18.3871C17.8526 37.2579 17.4193 36.8246 17.4193 36.2902Z" fill="#D23C69"/>
<path d="M25.8948 29.4497L23.9998 30.871C23.5124 31.2365 23.2255 31.8102 23.2255 32.4195V36.2904C23.2255 36.8249 22.7923 37.2581 22.2578 37.2581H21.29V39.1936H25.161C25.6955 39.1936 26.1287 38.7604 26.1287 38.2259V30.3427C26.1288 30.0233 26.0378 29.7221 25.8948 29.4497Z" fill="#D23C69"/>
<path d="M22.2574 37.2585H18.3867V39.194H22.2574V37.2585Z" fill="#E6AF78"/>
</svg>
