<svg width="17" height="24" viewBox="0 0 17 24" fill="none" xmlns="http://www.w3.org/2000/svg">
<path d="M8.79798 23C8.67236 23 8.54674 22.8736 8.42112 22.7471L1.76315 12.1264C0.632556 9.72414 0.758178 6.94253 2.14002 4.66667C3.52186 2.3908 5.78306 1.12644 8.2955 1C8.54674 1 8.9236 1 9.17485 1C11.6873 1.12644 13.9485 2.51724 15.3303 4.66667C16.7122 6.94253 16.8378 9.72414 15.8328 12.1264L9.17485 22.7471C9.04923 22.8736 8.9236 23 8.79798 23ZM8.79798 1.63218C8.67236 1.63218 8.54674 1.63218 8.42112 1.63218C6.0343 1.75862 4.02435 2.89655 2.76813 5.04598C1.51191 7.06897 1.38629 9.72414 2.39126 11.8736L8.79798 21.7356L15.2047 11.7471C16.2097 9.5977 16.0841 6.94253 14.8278 4.91954C13.5716 2.89655 11.5617 1.63218 9.30047 1.50575C9.04923 1.63218 8.9236 1.63218 8.79798 1.63218Z" fill="#94AAF9" stroke="#94AAF9" stroke-miterlimit="10"/>
<path d="M8.79776 13.0115C6.41094 13.0115 4.52661 11.115 4.52661 8.71267C4.52661 6.31037 6.41094 4.41382 8.79776 4.41382C11.1846 4.41382 13.0689 6.31037 13.0689 8.71267C13.0689 11.115 11.059 13.0115 8.79776 13.0115ZM8.79776 5.17244C6.78781 5.17244 5.28034 6.81612 5.28034 8.71267C5.28034 10.6092 6.91343 12.2529 8.79776 12.2529C10.8077 12.2529 12.3152 10.6092 12.3152 8.71267C12.3152 6.81612 10.6821 5.17244 8.79776 5.17244Z" fill="#94AAF9" stroke="#94AAF9" stroke-miterlimit="10"/>
</svg>
