<svg width="580" height="300" viewBox="0 0 580 300" fill="none" xmlns="http://www.w3.org/2000/svg">
<path d="M197.814 33.663L197.769 12.9877L187.521 30.0983H184.936L174.688 13.2551V33.663H169.163V2.47183H173.93L186.318 23.1471L198.482 2.47183H203.25L203.295 33.663H197.814Z" fill="black"/>
<path d="M234.177 26.4445H218.582L215.507 33.663H209.536L223.572 2.47183H229.276L243.357 33.663H237.297L234.177 26.4445ZM232.261 21.8995L226.38 8.26448L220.542 21.8995H232.261Z" fill="black"/>
<path d="M254.312 7.3733H243.974V2.47183H270.442V7.3733H260.105V33.663H254.312V7.3733Z" fill="black"/>
<path d="M291.02 34.1086C287.871 34.1086 285.019 33.4254 282.464 32.0589C279.939 30.6627 277.949 28.7467 276.493 26.3108C275.067 23.8749 274.354 21.1271 274.354 18.0674C274.354 15.0077 275.082 12.2599 276.538 9.82404C277.993 7.38816 279.984 5.48698 282.509 4.12051C285.063 2.72433 287.915 2.02625 291.064 2.02625C293.619 2.02625 295.951 2.47183 298.06 3.36301C300.169 4.25419 301.951 5.54639 303.407 7.23963L299.664 10.7598C297.406 8.32389 294.629 7.10595 291.331 7.10595C289.193 7.10595 287.277 7.58125 285.583 8.53184C283.89 9.45272 282.568 10.7449 281.618 12.4085C280.667 14.072 280.192 15.9583 280.192 18.0674C280.192 20.1765 280.667 22.0629 281.618 23.7264C282.568 25.3899 283.89 26.697 285.583 27.6476C287.277 28.5685 289.193 29.0289 291.331 29.0289C294.629 29.0289 297.406 27.7961 299.664 25.3305L303.407 28.8952C301.951 30.5885 300.154 31.8807 298.015 32.7718C295.906 33.663 293.574 34.1086 291.02 34.1086Z" fill="black"/>
<path d="M338.901 2.47183V33.663H333.108V20.2954H316.978V33.663H311.185V2.47183H316.978V15.3493H333.108V2.47183H338.901Z" fill="black"/>
<path d="M362.943 33.9304C358.903 33.9304 355.755 32.7718 353.497 30.4548C351.239 28.1377 350.11 24.7661 350.11 20.3399V2.47183H353.408V20.2062C353.408 23.8304 354.225 26.5336 355.859 28.316C357.492 30.0983 359.854 30.9895 362.943 30.9895C366.062 30.9895 368.439 30.0983 370.073 28.316C371.707 26.5336 372.524 23.8304 372.524 20.2062V2.47183H375.732V20.3399C375.732 24.7661 374.603 28.1377 372.345 30.4548C370.117 32.7718 366.983 33.9304 362.943 33.9304Z" fill="black"/>
<path d="M399.57 2.47183C403.551 2.47183 406.67 3.42242 408.928 5.3236C411.185 7.22478 412.314 9.83889 412.314 13.166C412.314 16.493 411.185 19.1071 408.928 21.0083C406.67 22.8798 403.551 23.8155 399.57 23.8155H391.193V33.663H387.896V2.47183H399.57ZM399.481 20.9192C402.571 20.9192 404.932 20.2508 406.566 18.914C408.2 17.5476 409.017 15.6315 409.017 13.166C409.017 10.641 408.2 8.71007 406.566 7.3733C404.932 6.00683 402.571 5.3236 399.481 5.3236H391.193V20.9192H399.481Z" fill="black"/>
<path fill-rule="evenodd" clip-rule="evenodd" d="M351.856 0L359.723 7.86696L357.622 9.96749L351.856 4.20105L346.09 9.96749L343.989 7.86696L351.856 0Z" fill="black"/>
<ellipse cx="49" cy="292" rx="49" ry="7" fill="#CFD7E2"/>
<ellipse cx="531" cy="292" rx="49" ry="7" fill="#CFD7E2"/>
<ellipse cx="201.5" cy="293" rx="90.5" ry="7" fill="#CFD7E2"/>
<ellipse cx="380.5" cy="293" rx="90.5" ry="7" fill="#CFD7E2"/>
<path d="M223 131.5C223 138.128 220.001 144.056 215.285 148C211.553 151.121 206.746 153 201.5 153C196.254 153 191.447 151.121 187.715 148C185.367 146.036 183.444 143.58 182.105 140.79C180.756 137.978 180 134.827 180 131.5C180 119.626 189.626 110 201.5 110C213.374 110 223 119.626 223 131.5Z" fill="#5E67B2"/>
<path d="M178 148H187.715C185.367 146.036 183.444 143.58 182.105 140.79C183.789 145.822 180.07 147.693 178 148Z" fill="#5E67B2"/>
<path d="M220.895 140.79C219.556 143.58 217.633 146.036 215.285 148H225C222.93 147.693 219.211 145.822 220.895 140.79Z" fill="#5E67B2"/>
<path d="M142 292H261C268.732 292 275 285.732 275 278V243C274.693 240.93 272.8 237.221 267.768 238.906C264.884 240.342 261.94 241 258.5 241C246.626 241 237 231.374 237 219.5C237 207.626 246.626 198 258.5 198C262.504 198 265.5 199 267.788 200.104C272.82 201.788 274.693 198.07 275 196V148H225H215.285C211.553 151.121 206.746 153 201.5 153C196.254 153 191.447 151.121 187.715 148H178H128V278C128 285.732 134.268 292 142 292Z" fill="#5E67B2"/>
<path d="M296.5 197C303.128 197 309.056 199.999 313 204.715C316.121 208.447 318 213.254 318 218.5C318 223.746 316.121 228.553 313 232.285C311.036 234.633 308.58 236.556 305.79 237.895C302.978 239.244 299.827 240 296.5 240C284.626 240 275 230.374 275 218.5C275 206.626 284.626 197 296.5 197Z" fill="#FFB405"/>
<path d="M313 242L313 232.285C311.036 234.633 308.58 236.556 305.79 237.895C310.822 236.211 312.693 239.93 313 242Z" fill="#FFB405"/>
<path d="M305.79 199.105C308.58 200.444 311.036 202.367 313 204.715L313 195C312.693 197.07 310.822 200.789 305.79 199.105Z" fill="#FFB405"/>
<path d="M457 278L457 159C457 151.268 450.732 145 443 145L408 145C405.93 145.307 402.221 147.2 403.906 152.232C405.342 155.116 406 158.06 406 161.5C406 173.374 396.374 183 384.5 183C372.626 183 363 173.374 363 161.5C363 157.496 364 154.5 365.104 152.212C366.788 147.18 363.07 145.307 361 145L313 145L313 195L313 204.715C316.121 208.447 318 213.254 318 218.5C318 223.746 316.121 228.553 313 232.285L313 242L313 292L443 292C450.732 292 457 285.732 457 278Z" fill="#FFB405"/>
<path d="M128.5 223L125 223.5L125.5 219.5C127.1 218.3 128.5 212 130.5 209.5C130.758 211.822 129.797 214.434 129 218C128.561 219.962 128.855 221.758 128.5 223Z" fill="white"/>
<path d="M126.5 198.5C126.5 200.5 124.833 203 124 204V207.5L128 206C128 205.833 127.9 205.1 127.5 203.5C127.667 203.167 128.1 202.1 128.5 200.5C129.3 196.5 128.5 194.167 128 193.5C127.5 194.333 126.5 196.5 126.5 198.5Z" fill="white"/>
<path d="M128.5 223L125 223.5L125.5 219.5C127.1 218.3 128.5 212 130.5 209.5C130.758 211.822 129.797 214.434 129 218C128.561 219.962 128.855 221.758 128.5 223Z" stroke="black" stroke-linecap="round" stroke-linejoin="round"/>
<path d="M126.5 198.5C126.5 200.5 124.833 203 124 204V207.5L128 206C128 205.833 127.9 205.1 127.5 203.5C127.667 203.167 128.1 202.1 128.5 200.5C129.3 196.5 128.5 194.167 128 193.5C127.5 194.333 126.5 196.5 126.5 198.5Z" stroke="black" stroke-linecap="round" stroke-linejoin="round"/>
<path d="M106 196.5L107 197.5" stroke="black" stroke-linecap="round" stroke-linejoin="round"/>
<path d="M103.5 190C103.5 189.333 102.609 187.836 101.5 189.5C100.5 191 100.833 192.333 101.5 193M104 189.5L107 190.5C107.013 190.576 107.028 190.657 107.046 190.742M109 193C107.891 193.37 107.266 191.775 107.046 190.742M107.046 190.742C107.864 189.989 109.5 188.935 109.5 190.742" stroke="black" stroke-linecap="round" stroke-linejoin="round"/>
<path d="M98.5 217C98.1667 217.667 97 219.5 95 221.5C89.8 225.5 86.1667 236.5 85 241.5C73.4 240.3 63.8333 232 60.5 228L58.5 225C62.2921 222.346 69.1904 216.815 73 211.68M98.5 217C94.8333 215.5 87.5 210.9 87.5 204.5M98.5 217C105.5 220 119 226 121.5 225.5L122 224.3M124 219.5L122 224.3M124 219.5H125.5L124.5 225L122 224.3M124 219.5C117.729 217.319 106.26 212.818 102.075 209.5M97 200C102.2 203.2 115.5 203.667 121.5 203.5V204M97 200L89.5 192.969M97 200C97.1461 200.17 97.3157 200.383 97.5 200.631M73 211.68C74.2134 210.045 75.1135 208.449 75.5 207C77.1 199.8 85.1667 194.333 89 192.5L89.5 192.969M73 211.68C73 212.62 74.1 214.7 78.5 215.5M64.5 231.5C66.5 229.833 70.9 225.9 72.5 223.5M83 210.5C84.5 211.287 88.5 212.386 90.5 211.442M90.5 201.5C91.5 200.833 94.1 200.3 96.5 203.5M102.075 209.5C101.144 208.762 100.573 208.082 100.5 207.5C100.158 204.768 98.5773 202.084 97.5 200.631M102.075 209.5H121.5V209M89.5 192.969L91 191L98 198L97.5 200.631M121.5 204H123.5V208.5L121.5 209M121.5 204V209M80.5 221.5L79 224.5L87 228.5L88 225.5C86.3333 225 82.5 223.5 80.5 221.5Z" stroke="black" stroke-linecap="round" stroke-linejoin="round"/>
<path d="M101.5 179.5C93.5002 179.9 92.9999 186 93 189C93.4444 191 93.5001 192.214 94.5002 192.5C98.0002 193.5 96.5002 191 98.5002 189.5C102 186.5 103 187.5 108 186.5C112 185.7 111 183.111 109 182C107.5 181.167 103.9 179.5 101.5 179.5Z" fill="#694B4B"/>
<path d="M94.5002 192.5C98.0002 193.5 96.5002 191 98.5002 189.5C102 186.5 103 187.5 108 186.5C112 185.7 111 183.111 109 182C107.5 181.167 103.9 179.5 101.5 179.5C93.5002 179.9 92.9999 186 93 189C93.4444 191 93.5001 192.214 94.5002 192.5ZM94.5002 192.5L93.4999 193.5M109 186.5C109.167 187.667 109.4 190.4 109 192C108.6 193.6 109.167 195 109.5 195.5L108 196C107.667 196.5 106.8 198 106 200C105.28 201.799 102.619 200.227 101 198.922M100.5 196C100.1 197.2 100.333 198.167 100.5 198.5C100.651 198.634 100.819 198.777 101 198.922M98.9999 200.5L101 198.922" stroke="black" stroke-linecap="round" stroke-linejoin="round"/>
<path d="M41.5 255.5C30.7 263.1 21 274 17.5 278.5L27 285C30.3333 281.167 37.7 272.8 40.5 270C43.3 267.2 48 263.833 50 262.5L69.5 247C69.1 247.8 76.3333 253 80 255.5C75.2 261.5 68 272.333 65 277L75.5 283C76 281 86.5 263.5 90 259C92.8 255.4 91.8333 252.833 91 252L83.5 241.5C78.2438 240.561 73.4427 238.265 69.5 235.695C65.0415 232.789 61.6805 229.534 60 227.5C58 228.3 56.8333 232.5 56.5 234.5C56 238.333 52.3 247.9 41.5 255.5Z" fill="#5E67B2"/>
<path d="M41.5 255.5C30.7 263.1 21 274 17.5 278.5L27 285C30.3333 281.167 37.7 272.8 40.5 270C43.3 267.2 48 263.833 50 262.5L69.5 247M41.5 255.5C52.3 247.9 56 238.333 56.5 234.5C56.8333 232.5 58 228.3 60 227.5C61.6805 229.534 65.0415 232.789 69.5 235.695M41.5 255.5C42.1667 255.667 43.7 256.2 44.5 257M80 255.5C75.2 261.5 68 272.333 65 277L75.5 283C76 281 86.5 263.5 90 259C92.8 255.4 91.8333 252.833 91 252L83.5 241.5C78.2438 240.561 73.4427 238.265 69.5 235.695M80 255.5C76.3333 253 69.1 247.8 69.5 247M80 255.5C81.3333 256 84.6 256.8 87 256M69.5 247L74 243.5M61 238.5C63 238.63 67.5 238.251 69.5 235.695" stroke="black" stroke-linecap="round" stroke-linejoin="round"/>
<path d="M13.5 285C13.5 281.8 15.8333 280 17 279.5L17.5 279L27 285.5C27.5 286.5 28.8 288.5 30 288.5C31.2 288.5 32.5 288.833 33 289C34.3333 290 35.7 291.9 30.5 291.5C25.3 291.1 21.3333 288 20 286.5L18 288C16.5 287.167 13.5 285.4 13.5 285Z" fill="white" stroke="black" stroke-linecap="round" stroke-linejoin="round"/>
<path d="M483 199.332L486.066 201.228" stroke="black"/>
<path d="M455.043 223L458.543 223.5V219.5C456.943 218.3 455.043 212 453.043 209.5C452.785 211.822 453.746 214.434 454.543 218C454.981 219.962 454.688 221.758 455.043 223Z" fill="white"/>
<path d="M457.043 198.5C457.043 200.5 458.709 203 459.543 204V207.5L455.543 206.5C455.543 206.333 455.643 205.1 456.043 203.5C455.876 203.167 455.443 202.1 455.043 200.5C454.243 196.5 455.043 194.167 455.543 193.5C456.043 194.333 457.043 196.5 457.043 198.5Z" fill="white"/>
<path d="M455.043 223L458.543 223.5V219.5C456.943 218.3 455.043 212 453.043 209.5C452.785 211.822 453.746 214.434 454.543 218C454.981 219.962 454.688 221.758 455.043 223Z" stroke="black" stroke-linecap="round" stroke-linejoin="round"/>
<path d="M457.043 198.5C457.043 200.5 458.709 203 459.543 204V207.5L455.543 206.5C455.543 206.333 455.643 205.1 456.043 203.5C455.876 203.167 455.443 202.1 455.043 200.5C454.243 196.5 455.043 194.167 455.543 193.5C456.043 194.333 457.043 196.5 457.043 198.5Z" stroke="black" stroke-linecap="round" stroke-linejoin="round"/>
<path d="M485.043 217C485.376 217.667 486.543 219.5 488.543 221.5C493.743 225.5 497.376 236.5 498.543 241.5C510.143 240.3 519.709 232 523.043 228L525.043 225C521.251 222.346 514.352 216.815 510.543 211.68C509.329 210.045 508.429 208.449 508.043 207C506.686 200.893 500.675 196.032 496.543 193.579M485.043 217C488.709 215.5 496.043 210.9 496.043 204.5M485.043 217C478.043 220 464.543 226 462.043 225.5L461.543 224.3M459.543 219.5L461.543 224.3M459.543 219.5H458.043L459.043 225L461.543 224.3M459.543 219.5C465.814 217.319 477.283 212.818 481.468 209.5M486.543 200.5C481.343 203.7 468.043 204.167 462.043 204M486.543 200.5L494.043 192.969M486.543 200.5C486.397 200.67 486.227 200.383 486.043 200.631M519.043 231.5C517.043 229.833 512.643 225.9 511.043 223.5M493.043 201.5C492.043 200.833 489.443 200.3 487.043 203.5M481.468 209.5C482.399 208.762 482.97 208.082 483.043 207.5C483.287 205.544 484.167 203.612 485.043 202.14M481.468 209.5H462.043V209M462.043 204H460.043V208.5L462.043 209M462.043 204V209M494.043 192.969L494.543 192.5C495.124 192.778 495.804 193.14 496.543 193.579M494.043 192.969L492.543 191L485.543 198L486.043 200.631M486.043 200.631C485.737 201.044 485.39 201.556 485.043 202.14M503.043 216C504.348 216.167 507.366 216.2 509 215M495.543 211.68C496.014 211.407 497.566 211.024 500 211.68M485.043 202.14L496.543 193.579M456 203.5L457 204.5M503.043 221.5L504.543 224.5L496.543 228.5L495.543 225.5C497.209 225 501.043 223.5 503.043 221.5Z" stroke="black" stroke-linecap="round" stroke-linejoin="round"/>
<path d="M476.543 197.5L477.543 196.5C478.528 196.167 480.3 194.4 479.5 190L483.5 196.5C483.5 199.5 482.7 204.4 479.5 204C476.3 206 476.195 200.833 476.543 197.5Z" fill="#F2C94C" stroke="black" stroke-linecap="round" stroke-linejoin="round"/>
<path d="M480.043 190C480.043 189.333 480.933 187.836 482.043 189.5C483.043 191 482.709 192.333 482.043 193M479.543 189.5L476.543 190.5C476.53 190.576 476.515 190.657 476.497 190.742M474.543 193C475.652 193.37 476.277 191.775 476.497 190.742M476.497 190.742C475.679 189.989 474.043 188.935 474.043 190.742" stroke="black" stroke-linecap="round" stroke-linejoin="round"/>
<path d="M490.542 189C490.543 186 489.5 179.4 481.5 179C479.1 179 475.543 180.167 474.043 181C472.043 182.111 471.542 185.7 475.542 186.5C480.542 187.5 481.542 186.5 485.042 189.5C487.042 191 484.5 195 489.042 192.5C489.953 191.998 490.098 191 490.542 189Z" fill="#F2C94C"/>
<path d="M490.542 189C490.543 186 489.5 179.4 481.5 179C479.1 179 475.543 180.167 474.043 181C472.043 182.111 471.542 185.7 475.542 186.5M490.542 189C490.098 191 489.953 191.998 489.042 192.5M490.542 189C485.776 181 478.557 184 475.542 186.5M475.542 186.5C480.542 187.5 481.542 186.5 485.042 189.5C487.042 191 484.5 195 489.042 192.5M489.042 192.5L490.043 193.5M474.542 186.5C474.375 187.667 473.642 188.4 474.043 190C474.443 191.6 475 190.5 474.043 195.5L475.542 196C475.876 196.5 475.7 196 476.5 198" stroke="black" stroke-linecap="round" stroke-linejoin="round"/>
<path d="M481.973 179C489.973 179.4 491.016 186 491.016 189C486.25 181 479.03 184 476.015 186.5C472.015 185.7 472.516 182.111 474.516 181C476.016 180.167 479.573 179 481.973 179Z" fill="#FFB405" stroke="black" stroke-linecap="round" stroke-linejoin="round"/>
<path d="M542.043 255.5C552.843 263.1 562.543 274 566.043 278.5L556.543 285C553.209 281.167 545.843 272.8 543.043 270C540.243 267.2 535.543 263.833 533.543 262.5L514.043 247C514.443 247.8 507.209 253 503.543 255.5C508.343 261.5 515.543 272.333 518.543 277L508.043 283C507.543 281 497.043 263.5 493.543 259C490.743 255.4 491.709 252.833 492.543 252L500.043 241.5C505.299 240.561 510.1 238.265 514.043 235.695C518.501 232.789 521.862 229.534 523.543 227.5C525.543 228.3 526.709 232.5 527.043 234.5C527.543 238.333 531.243 247.9 542.043 255.5Z" fill="#5E67B2"/>
<path d="M542.043 255.5C552.843 263.1 562.543 274 566.043 278.5L556.543 285C553.209 281.167 545.843 272.8 543.043 270C540.243 267.2 535.543 263.833 533.543 262.5L514.043 247M542.043 255.5C531.243 247.9 527.543 238.333 527.043 234.5C526.709 232.5 525.543 228.3 523.543 227.5C521.862 229.534 518.501 232.789 514.043 235.695M542.043 255.5C541.376 255.667 539.843 256.2 539.043 257M503.543 255.5C508.343 261.5 515.543 272.333 518.543 277L508.043 283C507.543 281 497.043 263.5 493.543 259C490.743 255.4 491.709 252.833 492.543 252L500.043 241.5C505.299 240.561 510.1 238.265 514.043 235.695M503.543 255.5C507.209 253 514.443 247.8 514.043 247M503.543 255.5C502.209 256 498.943 256.8 496.543 256M514.043 247L509.543 243.5M522.543 238.5C520.543 238.63 516.043 238.251 514.043 235.695" stroke="black" stroke-linecap="round" stroke-linejoin="round"/>
<path d="M570.043 285C570.043 281.8 567.709 280 566.543 279.5L566.043 279L556.543 285.5C556.043 286.5 554.743 288.5 553.543 288.5C552.343 288.5 551.043 288.833 550.543 289C549.209 290 547.843 291.9 553.043 291.5C558.243 291.1 562.209 288 563.543 286.5L565.543 288C567.043 287.167 570.043 285.4 570.043 285Z" fill="white" stroke="black" stroke-linecap="round" stroke-linejoin="round"/>
<path d="M522.846 282.796C522.018 279.705 519.298 278.57 518.042 278.389L517.43 278.035L511.543 281L512.043 282.796C511.819 283.891 510.702 287.689 509.543 288C508.384 288.311 506.543 288.5 505.543 290.5C504.514 291.811 508.543 292.5 511.543 291C515.148 289.197 516.056 287.721 516.956 285.927L519.276 286.858C520.509 285.665 522.95 283.182 522.846 282.796Z" fill="white"/>
<path d="M512.043 282.796C511.819 283.891 510.702 287.689 509.543 288C508.384 288.311 506.543 288.5 505.543 290.5C504.514 291.811 508.543 292.5 511.543 291C515.148 289.197 516.056 287.721 516.956 285.927L519.276 286.858C520.509 285.665 522.95 283.182 522.846 282.796C522.018 279.705 519.298 278.57 518.042 278.389L517.43 278.035M512.043 282.796L517.43 278.035M512.043 282.796L511.543 281L517.43 278.035" stroke="black" stroke-linecap="round" stroke-linejoin="round"/>
<path d="M510 287.5H512.5M511.5 284.5H514M555 287.5H557.5M557.5 285H559.5" stroke="black" stroke-linecap="round" stroke-linejoin="round"/>
<path d="M62 284C62 280.8 64.3333 279 65.5 278.5L66 278L66.5 277.5L73.5 281.5L73 283.5C73.5 284.5 74 287.5 75 288C76.0733 288.537 76.2823 288.594 77.5 289C78.7177 289.406 79.5 291.5 76.5 291.5C71.2846 291.5 68.8333 287 67.5 285.5L66.5 287C65 286.167 62 284.4 62 284Z" fill="white"/>
<path d="M73 283.5C73.5 284.5 74 287.5 75 288C76.0733 288.537 76.2823 288.594 77.5 289C78.7177 289.406 79.5 291.5 76.5 291.5C71.2846 291.5 68.8333 287 67.5 285.5L66.5 287C65 286.167 62 284.4 62 284C62 280.8 64.3333 279 65.5 278.5L66 278M73 283.5L66 278M73 283.5L73.5 281.5L66.5 277.5L66 278" stroke="black"/>
</svg>
